[
  {
    "source": "offer.requestedCoverages.policy.bodilyInjury",
    "target": "params.[0].quoteData.lobData.personalAuto_EA.offerings.[0].coverages.lineCoverages[codeIdentifier='EA_BodilyInjury'].terms.[0].chosenTermValue"
  },
  {
    "source": "offer.requestedCoverages.policy.bodilyInjury",
    "target": "params.[0].quoteData.lobData.personalAuto_EA.offerings.[0].coverages.lineCoverages[codeIdentifier='EA_BodilyInjury'].terms.[0].chosenTerm"
  },
  {
    "when": "#data.equals('REJ') or #data.equals('RJ')",
    "source": "offer.requestedCoverages.policy.bodilyInjury",
    "target": "params.[0].quoteData.lobData.personalAuto_EA.offerings.[0].coverages.lineCoverages[codeIdentifier='EA_BodilyInjury'].rejected",
    "read": "'true'"
  },
  {
    "source": "offer.requestedCoverages.policy.bodilyInjury",
    "target": "params.[0].quoteData.lobData.personalAuto_EA.offerings.[0].coverages.lineCoverages[codeIdentifier='EA_BodilyInjury'].selected",
    "read": "!({'0', '0/', '0/0', '/0', ''}.contains(#data) or #data.toLowerCase().matches('^.*(rej|rj|no cov).*$')) ? 'true' : 'false'"
  },
  {
    "source": "offer.requestedCoverages.vehicle.*.platinumBundle",
    "target": "params.[0].quoteData.lobData.personalAuto_EA.offerings.[0].coverages.vehicleCoverages.[].coverages[codeIdentifier='EA_PlatinumCoverageBundle'].selected",
    "index": "vehicle",
    "read": "!#data.equals(null) and #data.equals('true')"
  },
  {
    "source": "offer.requestedCoverages.vehicle.*.goldBundle",
    "target": "params.[0].quoteData.lobData.personalAuto_EA.offerings.[0].coverages.vehicleCoverages.[].coverages[codeIdentifier='EA_GoldCoverageBundle'].selected",
    "index": "vehicle",
    "read": "!#data.equals(null) and #data.equals('true')"
  },
  {
    "source": "offer.requestedCoverages.vehicle.*.comprehensive",
    "target": "params.[0].quoteData.lobData.personalAuto_EA.offerings.[0].coverages.vehicleCoverages.[].coverages[codeIdentifier='EA_Comprehensive'].terms.[0].chosenTerm",
    "index": "vehicle",
    "type": "enum"
  },
  {
    "source": "offer.requestedCoverages.vehicle.*.comprehensive",
    "target": "params.[0].quoteData.lobData.personalAuto_EA.offerings.[0].coverages.vehicleCoverages.[].coverages[codeIdentifier='EA_Comprehensive'].selected",
    "index": "vehicle",
    "read": "{null, '', 'REJ', 'RJ', 'Rejected', 'No Cov', 'No Coverage'}.contains(#data) ? 'false' : 'true'"
  },
  {
    "source": "offer.requestedCoverages.vehicle.*.collision",
    "target": "params.[0].quoteData.lobData.personalAuto_EA.offerings.[0].coverages.vehicleCoverages.[].coverages[codeIdentifier='EA_Collision'].terms.[0].chosenTerm",
    "index": "vehicle",
    "type": "enum"
  },
  {
    "source": "offer.requestedCoverages.vehicle.*.collision",
    "target": "params.[0].quoteData.lobData.personalAuto_EA.offerings.[0].coverages.vehicleCoverages.[].coverages[codeIdentifier='EA_Collision'].selected",
    "index": "vehicle",
    "read": "{null, '', 'REJ', 'RJ', 'Rejected', 'No Cov', 'No Coverage'}.contains(#data) ? 'false' : 'true'"
  },
  {
    "source": "offer.requestedCoverages.vehicle.*.fullGlass",
    "target": "params.[0].quoteData.lobData.personalAuto_EA.offerings.[0].coverages.vehicleCoverages.[].coverages[codeIdentifier='EA_FullGlass'].selected",
    "read": "{null, 'REJ', 'RJ', 'Rejected', '0'}.contains(#data) ? 'false' : 'true'",
    "index": "vehicle"
  },
  {
    "source": "vehicle.*.vin",
    "target": "params.[0].quoteData.lobData.personalAuto_EA.offerings.[0].coverages.vehicleCoverages.[].IntegrationID",
    "read": "'e1p-pc:'.concat(#indexedSource.split('\\.')[1])"
  },
  {
    "source": "offer.requestedCoverages.policy.uninsuredMotorist",
    "target": "params.[0].quoteData.lobData.personalAuto_EA.offerings.[0].coverages.lineCoverages[codeIdentifier='EA_UMBI'].terms.[patternCodeIdentifier='EA_UMBI_Limit'].chosenTermValue"
  },
  {
    "source": "offer.requestedCoverages.policy.uninsuredMotorist",
    "target": "params.[0].quoteData.lobData.personalAuto_EA.offerings.[0].coverages.lineCoverages[codeIdentifier='EA_UMBI'].terms.[patternCodeIdentifier='EA_UMBI_Limit'].chosenTerm"
  },
  {
    "source": "offer.requestedCoverages.policy.uninsuredMotorist",
    "target": "params.[0].quoteData.lobData.personalAuto_EA.offerings.[0].coverages.lineCoverages[codeIdentifier='EA_UMBI'].terms.[patternCodeIdentifier='EA_UMBI_Limit'].updated",
    "read": "true"
  },
  {
    "source": "offer.requestedCoverages.policy.uninsuredMotorist",
    "target": "params.[0].quoteData.lobData.personalAuto_EA.offerings.[0].coverages.lineCoverages[codeIdentifier='EA_UMBI'].selected",
    "read": "{null, 'REJ', 'RJ', 'Rejected', '0'}.contains(#data) ? 'false' : 'true'"
  },
  {
    "source": "offer.requestedCoverages.policy.underInsuredMotorist",
    "target": "params.[0].quoteData.lobData.personalAuto_EA.offerings.[0].coverages.lineCoverages[codeIdentifier='EA_UIMBI'].terms.[patternCodeIdentifier='EA_UIMBI_Limit'].chosenTermValue"
  },
  {
    "source": "offer.requestedCoverages.policy.underInsuredMotorist",
    "target": "params.[0].quoteData.lobData.personalAuto_EA.offerings.[0].coverages.lineCoverages[codeIdentifier='EA_UIMBI'].terms.[patternCodeIdentifier='EA_UIMBI_Limit'].chosenTerm"
  },
  {
    "source": "offer.requestedCoverages.policy.underInsuredMotorist",
    "target": "params.[0].quoteData.lobData.personalAuto_EA.offerings.[0].coverages.lineCoverages[codeIdentifier='EA_UIMBI'].terms.[patternCodeIdentifier='EA_UIMBI_Limit'].updated",
    "read": "true"
  },
  {
    "source": "offer.requestedCoverages.policy.underInsuredMotorist",
    "target": "params.[0].quoteData.lobData.personalAuto_EA.offerings.[0].coverages.lineCoverages[codeIdentifier='EA_UIMBI'].selected",
    "read": "{null, 'REJ', 'RJ', 'Rejected', '0'}.contains(#data) ? 'false' : 'true'"
  },
  {
    "source": "offer.requestedCoverages.policy.bodilyInjuryPropertyDamageLiabilityCSL",
    "target": "params.[0].quoteData.lobData.personalAuto_EA.offerings.[0].coverages.lineCoverages[codeIdentifier='EA_BodilyInjuryPropertyDamageLiabilityCSL'].terms.[0].chosenTerm"
  },
  {
    "source": "offer.requestedCoverages.policy.bodilyInjuryPropertyDamageLiabilityCSL",
    "target": "params.[0].quoteData.lobData.personalAuto_EA.offerings.[0].coverages.lineCoverages[codeIdentifier='EA_BodilyInjuryPropertyDamageLiabilityCSL'].selected",
    "read": "{null, 'REJ', 'RJ', 'Rejected', '0'}.contains(#data) ? 'false' : 'true'"
  },
  {
    "source": "offer.requestedCoverages.policy.accidentalDeathAndDismemberment",
    "target": "params.[0].quoteData.lobData.personalAuto_EA.offerings.[0].coverages.lineCoverages[codeIdentifier='EA_AccidentalDeathAndDismemberment_Line'].selected",
    "read": "!({'0', '0/', '0/0', '/0'}.contains(#data) or #data.toLowerCase().matches('^.*(rej|rj|no cov).*$')) ? 'true' : 'false'"
  },
  {
    "source": "offer.requestedCoverages.policy.uninsuredMotoristCSL",
    "target": "params.[0].quoteData.lobData.personalAuto_EA.offerings.[0].coverages.lineCoverages[codeIdentifier='EA_UMBI'].terms[patternCodeIdentifier='EA_UMBI_UninsuredMotoristBodilyInjuryCSL'].updated",
    "read": "true"
  },
  {
    "source": "offer.requestedCoverages.policy.uninsuredMotoristCSL",
    "target": "params.[0].quoteData.lobData.personalAuto_EA.offerings.[0].coverages.lineCoverages[codeIdentifier='EA_UMBI'].terms[patternCodeIdentifier='EA_UMBI_UninsuredMotoristBodilyInjuryCSL'].chosenTerm",
    "read": "{null, 'REJ', 'RJ', 'Rejected'}.contains(#data) ? 'Rejected' : #data"
  },
  {
    "source": "offer.requestedCoverages.policy.uninsuredMotoristCSL",
    "target": "params.[0].quoteData.lobData.personalAuto_EA.offerings.[0].coverages.lineCoverages[codeIdentifier='EA_UMBI'].selected",
    "read": "{null, 'REJ', 'RJ', 'Rejected'}.contains(#data) ? false : true"
  },
  {
    "source": "offer.requestedCoverages.policy.underinsuredMotoristCSL",
    "target": "params.[0].quoteData.lobData.personalAuto_EA.offerings.[0].coverages.lineCoverages[codeIdentifier='EA_UIMBI'].terms[patternCodeIdentifier='EA_UIMBI_UnderinsuredMotoristBodilyInjuryCSL'].updated",
    "read": "true"
  },
  {
    "source": "offer.requestedCoverages.policy.underinsuredMotoristCSL",
    "target": "params.[0].quoteData.lobData.personalAuto_EA.offerings.[0].coverages.lineCoverages[codeIdentifier='EA_UIMBI'].terms[patternCodeIdentifier='EA_UIMBI_UnderinsuredMotoristBodilyInjuryCSL'].chosenTerm",
    "read": "{null, 'REJ', 'RJ', 'Rejected'}.contains(#data) ? 'Rejected' : #data"
  },
  {
    "source": "offer.requestedCoverages.policy.underinsuredMotoristCSL",
    "target": "params.[0].quoteData.lobData.personalAuto_EA.offerings.[0].coverages.lineCoverages[codeIdentifier='EA_UIMBI'].selected",
    "read": "true"
  },
  {
    "source": "answers.offer.requestedCoverages.policy.propertyDamage.value",
    "target": "params.[0].quoteData.lobData.personalAuto_EA.offerings.[0].coverages.lineCoverages[codeIdentifier='EA_PropertyDamage'].terms.[0].chosenTermValue"
  },
  {
    "source": "offer.requestedCoverages.policy.propertyDamage",
    "target": "params.[0].quoteData.lobData.personalAuto_EA.offerings.[0].coverages.lineCoverages[codeIdentifier='EA_PropertyDamage'].terms.[0].chosenTerm"
  },
  {
    "source": "offer.requestedCoverages.policy.propertyDamage",
    "target": "params.[0].quoteData.lobData.personalAuto_EA.offerings.[0].coverages.lineCoverages[codeIdentifier='EA_PropertyDamage'].selected",
    "read": "{null, 'REJ', 'RJ', 'Rejected', '0'}.contains(#data) ? 'false' : 'true'"
  },
  {
    "when": "!#inputs.containsKey('property.requestedCoverages.goldBundle') && !#inputs.containsKey('property.requestedCoverages.platinumBundle')",
    "source": "offer.requestedCoverages.vehicle.*.towingAndLabor",
    "target": "params.[0].quoteData.lobData.personalAuto_EA.offerings.[0].coverages.vehicleCoverages.[].coverages[codeIdentifier='EA_EmergencyRoadsideService'].terms.[0].chosenTerm",
    "index": "vehicle",
    "read": "#inputs.containsKey('policy.auto.durationPeriod') && '12'.equalsIgnoreCase(#inputs.get('policy.auto.durationPeriod')) ? '6' : '3'"
  },
  {
    "when": "!#inputs.containsKey('property.requestedCoverages.goldBundle') && !#inputs.containsKey('property.requestedCoverages.platinumBundle')",
    "source": "offer.requestedCoverages.vehicle.*.towingAndLabor",
    "target": "params.[0].quoteData.lobData.personalAuto_EA.offerings.[0].coverages.vehicleCoverages.[].coverages[codeIdentifier='EA_EmergencyRoadsideService'].selected",
    "index": "vehicle",
    "read": "{null, 'REJ', 'RJ', 'Rejected', '0', 'No Cov', 'No Coverage', ''}.contains(#data) ? 'false' : 'true'"
  },
  {
    "source": "offer.requestedCoverages.policy.medical",
    "target": "params.[0].quoteData.lobData.personalAuto_EA.offerings.[0].coverages.lineCoverages[codeIdentifier='EA_MedicalExpense'].terms.[0].chosenTermValue"
  },
  {
    "source": "offer.requestedCoverages.policy.medical",
    "target": "params.[0].quoteData.lobData.personalAuto_EA.offerings.[0].coverages.lineCoverages[codeIdentifier='EA_MedicalExpense'].terms.[0].chosenTerm"
  },
  {
    "source": "offer.requestedCoverages.policy.medical",
    "target": "params.[0].quoteData.lobData.personalAuto_EA.offerings.[0].coverages.lineCoverages[codeIdentifier='EA_MedicalExpense'].selected",
    "read": "{null, '0','REJ', 'RJ', 'Rejected', 'No Cov', 'No Coverage'}.contains(#data) ? 'false' : 'true'"
  },
  {
    "source": "offer.requestedCoverages.policy.paperlessInd",
    "target": "params.[0].quoteData.lobData.personalAuto_EA.paperlessInd"
  },
  {
    "source": "offer.requestedCoverages.vehicle.*.loanLeaseCoverage",
    "target": "params.[0].quoteData.lobData.personalAuto_EA.offerings.[0].coverages.vehicleCoverages.[].coverages[codeIdentifier='EA_LoanOrLease'].selected",
    "read": "true",
    "index": "vehicle"
  },
  {
    "when": "!{'IL'}.contains(#inputs.get('policy.auto.baseState')) || !#inputs.containsKey('offer.requestedCoverages.vehicle.*.collision')",
    "source": "offer.requestedCoverages.vehicle.*.uninsuredPropertyDamage",
    "target": "params.[0].quoteData.lobData.personalAuto_EA.offerings.[0].coverages.vehicleCoverages.[].coverages[codeIdentifier='EA_UMPD_Vehicle'].selected",
    "read": "true",
    "index": "vehicle"
  },
  {
    "source": "offer.requestedCoverages.vehicle.*.uninsuredPropertyDamage",
    "target": "params.[0].quoteData.lobData.personalAuto_EA.offerings.[0].coverages.vehicleCoverages.[].coverages[codeIdentifier='EA_UMPD_Vehicle'].selected",
    "read": "true",
    "index": "vehicle"
  },
  {
    "when": "{'IN'}.contains(#inputs.get('policy.auto.baseState'))",
    "source": "offer.requestedCoverages.vehicle.*.uninsuredPropertyDamage",
    "target": "params.[0].quoteData.lobData.personalAuto_EA.offerings.[0].coverages.vehicleCoverages.[].coverages[codeIdentifier='EA_UMPD_Vehicle'].terms.[patternCodeIdentifier='EA_UMPD_Vehicle_Limit'].chosenTerm",
    "index": "vehicle",
    "read": "{'REJ', 'RJ', 'Rejected', 'No Cov', 'No Coverage'}.contains(#data) ? 'Rejected' : #data"
  },
  {
    "when": "{'IN'}.contains(#inputs.get('policy.auto.baseState'))",
    "source": "offer.requestedCoverages.vehicle.*.uninsuredPropertyDamage",
    "target": "params.[0].quoteData.lobData.personalAuto_EA.offerings.[0].coverages.vehicleCoverages.[].coverages[codeIdentifier='EA_UMPD_Vehicle'].terms.[patternCodeIdentifier='EA_UMPD_Vehicle_Deductible'].chosenTerm",
    "index": "vehicle",
    "read": "{'REJ', 'RJ', 'Rejected', 'No Cov', 'No Coverage'}.contains(#data) ? 'NoCoverage' : 0"
  },
  {
    "when": "!{'IN'}.contains(#inputs.get('policy.auto.baseState'))",
    "source": "offer.requestedCoverages.vehicle.*.uninsuredPropertyDamage",
    "target": "params.[0].quoteData.lobData.personalAuto_EA.offerings.[0].coverages.vehicleCoverages.[].coverages[codeIdentifier='EA_UMPD_Vehicle'].terms.[patternCodeIdentifier='EA_UMPD_Vehicle_Limit'].chosenTerm",
    "index": "vehicle"
  },
  {
    "when": "!{'IN'}.contains(#inputs.get('policy.auto.baseState'))",
    "source": "offer.requestedCoverages.vehicle.*.uninsuredPropertyDamage",
    "target": "params.[0].quoteData.lobData.personalAuto_EA.offerings.[0].coverages.vehicleCoverages.[].coverages[codeIdentifier='EA_UMPD_Vehicle'].terms.[patternCodeIdentifier='EA_UMPD_Vehicle_Deductible'].chosenTerm",
    "index": "vehicle",
    "read": "250"
  }
]
