[
  {
    "source": "person.[@driver.ref].relationshipToApplicant",
    "target": "params.[0].quoteData.lobData.personalAuto_EA.coverables.drivers.[].relationshipToNI",
    "type": "ENUM",
    "index": "driver"
  },
  {
    "source": "driver.*.license.state",
    "target": "params.[0].quoteData.lobData.personalAuto_EA.coverables.drivers.[].person.licenseState",
    "type": "ENUM"
  },
  {
    "source": "person.[@driver.ref].driverType",
    "target": "params.[0].quoteData.lobData.personalAuto_EA.coverables.drivers.[].policyDriverRoleType",
    "type": "ENUM",
    "index": "driver"
  },
  {
    "source": "driver.*.license.number",
    "target": "params.[0].quoteData.lobData.personalAuto_EA.coverables.drivers.[].person.licenseNumber"
  },
  {
    "source": "insurance.prior.lapse",
    "target": "params[0].quoteData.lobData.personalAuto_EA.priorPolicyUpdates.[0].reason",
    "type": "ENUM"
  },
  {
    "source": "person.[@driver.ref].firstName",
    "target": "params.[0].quoteData.lobData.personalAuto_EA.coverables.drivers.[].integrationId",
    "read": "'e1p-pc:'.concat(#indexedSource.split('\\.')[1])",
    "index": "driver"
  },
  {
    "source": "driver.*.license.licensedDate",
    "target": "params.[0].quoteData.lobData.personalAuto_EA.coverables.drivers.[].person.firstLicenseDate",
    "read": "''.concat(#data.substring(5,7)).concat('/').concat(#data.substring(0,4))"
  },
  {
    "source": "driver.*.license.licensedDate",
    "target": "params.[0].quoteData.lobData.personalAuto_EA.coverables.drivers.[].ageFirstLicensed",
    "read": "((new Integer(#data.substring(0,4)) - new Integer(#inputs.get('person.'.concat(#indexedSource.split('\\.')[1]).concat('.dob')).substring(0,4))) - (#data.substring(5,10).compareTo(#inputs.get('person.'.concat(#indexedSource.split('\\.')[1]).concat('.dob')).substring(5,10)) < 0 ? 1 : 0))"
  }
]