[
  {
    "when": "{'01','02','03','05'}.contains(#inputs.get('property.policyType')) && {'SINGLE_OR_MULTI_FAMILY.SINGLE_FAMILY','SINGLE_OR_MULTI_FAMILY.TWO_FAMILY'}.contains(#inputs.get('property.singleOrMultiFamily')) && #inputs.containsKey('property.requestedCoverages.otherStructures') && #inputs.containsKey('property.requestedCoverages.dwelling') && new Integer(T(java.lang.Math).ceil(#dataInt / 100.0) * 100) > new Integer(0.10 * (new Integer(T(java.lang.Math).ceil(new Integer(#inputs.get('property.requestedCoverages.dwelling')) / 1000.0) * 1000)))",
    "source": "property.requestedCoverages.otherStructures",
    "target": "params.[0].quoteData.lobData.homeowners_EH.offerings.[0].coverages.schedules[patternName='EH_ScheduledStructuresCovBItem'].scheduleItems.[@deserialization-class='edge.capabilities.policycommon.coverage.schedule.dto.patterns.SimpleScheduledItemDTO' && itemData.EH_ScheduledStructuresCovB_Type.stringValue='unknown'].itemData.EH_ScheduledStructuresCovB_ItemLimit.bigDecimal",
    "read": "new Integer(T(java.lang.Math).ceil(#dataInt / 100.0) * 100) - new Integer(0.10 * (new Integer(T(java.lang.Math).ceil(new Integer(#inputs.get('property.requestedCoverages.dwelling')) / 1000.0) * 1000)))"
  },
  {
    "when": "{'01','02','03','05'}.contains(#inputs.get('property.policyType')) && {'SINGLE_OR_MULTI_FAMILY.SINGLE_FAMILY','SINGLE_OR_MULTI_FAMILY.TWO_FAMILY'}.contains(#inputs.get('property.singleOrMultiFamily')) && #inputs.containsKey('property.requestedCoverages.otherStructures') && #inputs.containsKey('property.requestedCoverages.dwelling') && new Integer(T(java.lang.Math).ceil(#dataInt / 100.0) * 100) > new Integer(0.10 * (new Integer(T(java.lang.Math).ceil(new Integer(#inputs.get('property.requestedCoverages.dwelling')) / 1000.0) * 1000)))",
    "source": "property.requestedCoverages.otherStructures",
    "target": "params.[0].quoteData.lobData.homeowners_EH.offerings.[0].coverages.coverages[codeIdentifier='EH_ScheduledStructuresCovB'].selected",
    "read": "true"
  },
  {
    "when": "{'01','02','03','05'}.contains(#inputs.get('property.policyType')) && {'SINGLE_OR_MULTI_FAMILY.THREE_FAMILY','SINGLE_OR_MULTI_FAMILY.FOUR_FAMILY'}.contains(#inputs.get('property.singleOrMultiFamily')) && #inputs.containsKey('property.requestedCoverages.otherStructures') && #inputs.containsKey('property.requestedCoverages.dwelling') && new Integer(T(java.lang.Math).ceil(#dataInt / 100.0) * 100) > new Integer(0.05 * (new Integer(T(java.lang.Math).ceil(new Integer(#inputs.get('property.requestedCoverages.dwelling')) / 1000.0) * 1000)))",
    "source": "property.requestedCoverages.otherStructures",
    "target": "params.[0].quoteData.lobData.homeowners_EH.offerings.[0].coverages.schedules[patternName='EH_ScheduledStructuresCovBItem'].scheduleItems.[@deserialization-class='edge.capabilities.policycommon.coverage.schedule.dto.patterns.SimpleScheduledItemDTO' && itemData.EH_ScheduledStructuresCovB_Type.stringValue='unknown'].itemData.EH_ScheduledStructuresCovB_ItemLimit.bigDecimal",
    "read": "new Integer(T(java.lang.Math).ceil(#dataInt / 100.0) * 100) - new Integer(0.05 * (new Integer(T(java.lang.Math).ceil(new Integer(#inputs.get('property.requestedCoverages.dwelling')) / 1000.0) * 1000)))"
  },
  {
    "when": "{'01','02','03','05'}.contains(#inputs.get('property.policyType')) && {'SINGLE_OR_MULTI_FAMILY.THREE_FAMILY','SINGLE_OR_MULTI_FAMILY.FOUR_FAMILY'}.contains(#inputs.get('property.singleOrMultiFamily')) && #inputs.containsKey('property.requestedCoverages.otherStructures') && #inputs.containsKey('property.requestedCoverages.dwelling') && new Integer(T(java.lang.Math).ceil(#dataInt / 100.0) * 100) > new Integer(0.05 * (new Integer(T(java.lang.Math).ceil(new Integer(#inputs.get('property.requestedCoverages.dwelling')) / 1000.0) * 1000)))",
    "source": "property.requestedCoverages.otherStructures",
    "target": "params.[0].quoteData.lobData.homeowners_EH.offerings.[0].coverages.coverages[codeIdentifier='EH_ScheduledStructuresCovB'].selected",
    "read": "true"
  }
]