[
  {
    "when": "!{'SP','BA'}.contains(#inputs.get('property.policyType')) and ('true'.equals(#inputs.get('property.hasWatercraft')))",
    "source": "answers.watercraft.*.watercraftType.value",
    "target": "params.[0].quoteData.lobData.homeowners_EH.offerings.[0].coverages.schedules[patternName='EH_ScheduledWatercraftItem'].scheduleItems[@deserialization-class='edge.capabilities.policycommon.coverage.schedule.dto.patterns.SimpleScheduledItemDTO' && referenceCode='ScheduledWatercraft'].itemData.EH_ScheduledWatercraft_ItemDesc.stringValue",
    "type": "ENUM"
  },
  {
    "when": "!{'SP','BA'}.contains(#inputs.get('property.policyType')) and ('true'.equals(#inputs.get('property.hasWatercraft')))",
    "source": "answers.watercraft.*.length.value",
    "target": "params.[0].quoteData.lobData.homeowners_EH.offerings.[0].coverages.schedules[patternName='EH_ScheduledWatercraftItem'].scheduleItems[@deserialization-class='edge.capabilities.policycommon.coverage.schedule.dto.patterns.SimpleScheduledItemDTO' && referenceCode='ScheduledWatercraft'].itemData.EH_ScheduledWatercraft_ItemLength.integerValue"
  },
  {
    "when": "!{'SP','BA'}.contains(#inputs.get('property.policyType')) and ('true'.equals(#inputs.get('property.hasWatercraft')))",
    "source": "answers.watercraft.*.power.value",
    "target": "params.[0].quoteData.lobData.homeowners_EH.offerings.[0].coverages.schedules[patternName='EH_ScheduledWatercraftItem'].scheduleItems[@deserialization-class='edge.capabilities.policycommon.coverage.schedule.dto.patterns.SimpleScheduledItemDTO' && referenceCode='ScheduledWatercraft'].itemData.EH_ScheduledWatercraft_ItemMotorHorsepower.integerValue"
  },
  {
    "when": "!{'SP','BA'}.contains(#inputs.get('property.policyType')) and ('true'.equals(#inputs.get('property.hasWatercraft')))",
    "source": "answers.watercraft.*.propulsionType.value",
    "target": "params.[0].quoteData.lobData.homeowners_EH.offerings.[0].coverages.schedules[patternName='EH_ScheduledWatercraftItem'].scheduleItems[@deserialization-class='edge.capabilities.policycommon.coverage.schedule.dto.patterns.SimpleScheduledItemDTO' && referenceCode='ScheduledWatercraft'].itemData.EH_ScheduledWatercraft_ItemNavigationMonths.IntegerValue",
    "read": "12"
  },
  {
    "when": "!{'SP','BA'}.contains(#inputs.get('property.policyType')) and ('true'.equals(#inputs.get('property.hasWatercraft')))",
    "source": "answers.watercraft.*.propulsionType.value",
    "target": "params.[0].quoteData.lobData.homeowners_EH.offerings.[0].coverages.schedules[patternName='EH_ScheduledWatercraftItem'].scheduleItems[@deserialization-class='edge.capabilities.policycommon.coverage.schedule.dto.patterns.SimpleScheduledItemDTO' && referenceCode='ScheduledWatercraft'].itemData.EH_ScheduledWatercraft_ItemType.typeCodeValue",
    "type": "ENUM"
  }
]