{
  "xmlToJson": {
    "Coverages": [
      {
        "source": "/ACORD/InsuranceSvcRq/HomePolicyQuoteInqRq/HomeLineBusiness/Dwell/Coverage[CoverageCd='DWELL']",
        "required": "true",
        "targets": [
          {
            "source": "Limit/FormatCurrencyAmt/Amt",
            "target": "property.requestedCoverages.dwelling"
          },
          {
            "source": "Limit/FormatInteger",
            "target": "property.requestedCoverages.dwelling"
          }
        ]
      },
      {
        "source": "/ACORD/InsuranceSvcRq/HomePolicyQuoteInqRq/HomeLineBusiness/Dwell/Coverage[CoverageCd='PL']",
        "targets": [
          {
            "source": "Limit/FormatCurrencyAmt/Amt",
            "target": "property.requestedCoverages.personalLiability"
          },
          {
            "source": "Limit/FormatInteger",
            "target": "property.requestedCoverages.personalLiability"
          }
        ]
      },
      {
        "source": "/ACORD/InsuranceSvcRq/HomePolicyQuoteInqRq/HomeLineBusiness/Dwell/Coverage[CoverageCd='MEDPM']",
        "targets": [
          {
            "source": "Limit/FormatCurrencyAmt/Amt",
            "target": "property.requestedCoverages.medicalPaymentsToOthers"
          },
          {
            "source": "Limit/FormatInteger",
            "target": "property.requestedCoverages.medicalPaymentsToOthers"
          }
        ]
      },
      {
        "source": "/ACORD/InsuranceSvcRq/HomePolicyQuoteInqRq/HomeLineBusiness/Dwell/Coverage[CoverageCd='OS']",
        "targets": [
          {
            "source": "Limit/FormatCurrencyAmt/Amt",
            "target": "property.requestedCoverages.otherStructures"
          },
          {
            "source": "Limit/FormatInteger",
            "target": "property.requestedCoverages.otherStructures"
          }
        ]
      },
      {
        "source": "/ACORD/InsuranceSvcRq/HomePolicyQuoteInqRq/HomeLineBusiness/Dwell/Coverage[CoverageCd='SEWER']",
        "targets": [
          {
            "source": "Limit/FormatCurrencyAmt/Amt",
            "target": "property.requestedCoverages.includeWaterBackup"
          },
          {
            "source": "Limit/FormatInteger",
            "target": "property.requestedCoverages.includeWaterBackup"
          }
        ]
      },
      {
        "source": "/ACORD/InsuranceSvcRq/HomePolicyQuoteInqRq/HomeLineBusiness/Dwell/Coverage[CoverageCd='PP']",
        "targets": [
          {
            "source": "Limit/FormatCurrencyAmt/Amt",
            "target": "property.requestedCoverages.personalProperty"
          },
          {
            "source": "Limit/FormatInteger",
            "target": "property.requestedCoverages.personalProperty"
          }
        ]
      },
      {
        "source": "/ACORD/InsuranceSvcRq/HomePolicyQuoteInqRq/HomeLineBusiness/Dwell/Coverage[CoverageCd='PIHOM']/CoverageCd",
        "target": "property.requestedCoverages.personalInjuryCoverage"
      },
      {
        "source": "/ACORD/InsuranceSvcRq/HomePolicyQuoteInqRq/HomeLineBusiness/Dwell/Coverage[CoverageCd='MIN']/CoverageCd",
        "target": "property.requestedCoverages.mineSubsidence"
      },
      {
        "source": "/ACORD/InsuranceSvcRq/HomePolicyQuoteInqRq/HomeLineBusiness/Dwell/Coverage[CoverageCd='ERQK']/CoverageCd",
        "target": "property.requestedCoverages.includeEarthquake"
      },
      {
        "source": "/ACORD/InsuranceSvcRq/HomePolicyQuoteInqRq/HomeLineBusiness/Dwell/Coverage[CoverageCd='PC']/CoverageCd",
        "target": "property.requestedCoverages.includeSpecialComputerCoverage"
      },
      {
        "source": "/ACORD/InsuranceSvcRq/HomePolicyQuoteInqRq/HomeLineBusiness/Dwell/Coverage[CoverageCd='SPPP']/CoverageCd",
        "target": "property.requestedCoverages.includeSpecialPersonalPropertyCoverage"
      },
      {
        "source": "/ACORD/InsuranceSvcRq/HomePolicyQuoteInqRq/HomeLineBusiness/Dwell/Coverage[CoverageCd='BUS']/CoverageCd",
        "target": "property.requestedCoverages.businessPursuits"
      },
      {
        "source": "/ACORD/InsuranceSvcRq/HomePolicyQuoteInqRq/HomeLineBusiness/Dwell/Coverage[CoverageCd='BUSPR']/Limit/FormatInteger",
        "target": "property.requestedCoverages.businessProperty"
      },
      {
        "source": "/ACORD/InsuranceSvcRq/HomePolicyQuoteInqRq/HomeLineBusiness/Dwell/Coverage[CoverageCd='BUSAH']/Limit/FormatInteger",
        "target": "property.requestedCoverages.businessPropertyOffPremises"
      },
      {
        "source": "/ACORD/InsuranceSvcRq/HomePolicyQuoteInqRq/HomeLineBusiness/Dwell/Coverage[CoverageCd='LACEQ']/Limit/FormatInteger",
        "target": "property.requestedCoverages.earthquakeLoss"
      },
      {
        "source": "/ACORD/InsuranceSvcRq/HomePolicyQuoteInqRq/HomeLineBusiness/Dwell/Coverage[CoverageCd='SRB']",
        "targets": [
          {
            "source": "Limit/FormatCurrencyAmt/Amt",
            "target": "property.requestedCoverages.secondBuildingAdditionsAndAlterations"
          },
          {
            "source": "Limit/FormatInteger",
            "target": "property.requestedCoverages.secondBuildingAdditionsAndAlterations"
          }
        ]
      },
      {
        "source": "/ACORD/InsuranceSvcRq/HomePolicyQuoteInqRq/HomeLineBusiness/Dwell/Coverage[CoverageCd='FVREP']/Limit/FormatPct",
        "target": "property.requestedCoverages.fullValueReplacementPct"
      },
      {
        "source": "/ACORD/InsuranceSvcRq/HomePolicyQuoteInqRq/HomeLineBusiness/Dwell/Coverage[CoverageCd='BOLAW']/Limit/FormatPct",
        "target": "property.requestedCoverages.buildingOrdinanceOrLaw"
      },
      {
        "source": "/ACORD/InsuranceSvcRq/HomePolicyQuoteInqRq/HomeLineBusiness/Dwell/Coverage[CoverageCd='CDTCD']/Limit/FormatInteger",
        "target": "property.requestedCoverages.creditCardAndCounterfeitMoney"
      },
      {
        "source": "/ACORD/InsuranceSvcRq/HomePolicyQuoteInqRq/HomeLineBusiness/Dwell/Coverage[CoverageCd='UNJWF']/Limit/FormatInteger",
        "target": "property.requestedCoverages.unscheduledJewelryWatchesFurs"
      },
      {
        "source": "/ACORD/InsuranceSvcRq/HomePolicyQuoteInqRq/HomeLineBusiness/Dwell/Coverage[CoverageCd='CCMO']/Limit/FormatInteger",
        "target": "property.requestedCoverages.increasedCoverageCSpecialLiabilityLimitMoney"
      },
      {
        "source": "/ACORD/InsuranceSvcRq/HomePolicyQuoteInqRq/HomeLineBusiness/Dwell/Coverage[CoverageCd='CCSC']/Limit/FormatInteger",
        "target": "property.requestedCoverages.increasedCoverageCSpecialLiabilityLimitSecurities"
      },
      {
        "source": "/ACORD/InsuranceSvcRq/HomePolicyQuoteInqRq/HomeLineBusiness/Dwell/Coverage[CoverageCd='CCSV']/Limit/FormatInteger",
        "target": "property.requestedCoverages.increasedCoverageCSpecialLiabilityLimitSilverware"
      },
      {
        "source": "/ACORD/InsuranceSvcRq/HomePolicyQuoteInqRq/HomeLineBusiness/Dwell/Coverage[CoverageCd='CCGU']/Limit/FormatInteger",
        "target": "property.requestedCoverages.increasedCoverageCSpecialLiabilityLimitGuns"
      },
      {
        "source": "/ACORD/InsuranceSvcRq/HomePolicyQuoteInqRq/HomeLineBusiness/Dwell/Coverage[CoverageCd='CCFU']/Limit/FormatInteger",
        "target": "property.requestedCoverages.increasedCoverageCSpecialLiabilityLimitFur"
      },
      {
        "source": "/ACORD/InsuranceSvcRq/HomePolicyQuoteInqRq/HomeLineBusiness/Dwell/Coverage[CoverageCd='CCEIO']/Limit/FormatInteger",
        "target": "property.requestedCoverages.electronicApparatusInAndOutOfVehicle"
      },
      {
        "source": "/ACORD/InsuranceSvcRq/HomePolicyQuoteInqRq/HomeLineBusiness/Dwell/Coverage[CoverageCd='CCEAV']/Limit/FormatInteger",
        "target": "property.requestedCoverages.electronicApparatusInVehicle"
      },
      {
        "source": "/ACORD/InsuranceSvcRq/HomePolicyQuoteInqRq/HomeLineBusiness/Dwell/Coverage[CoverageCd='LOU']/Limit/FormatInteger",
        "target": "property.requestedCoverages.lossOfUse"
      },
      {
        "source": "/ACORD/InsuranceSvcRq/HomePolicyQuoteInqRq/HomeLineBusiness/Dwell/Coverage[CoverageCd='FRAUD']/CoverageCd",
        "target": "property.requestedCoverages.identityFraud"
      },
      {
        "source": "/ACORD/InsuranceSvcRq/HomePolicyQuoteInqRq/HomeLineBusiness/Dwell/Coverage[CoverageCd='PPREP']/CoverageCd",
        "target": "property.requestedCoverages.personalPropertyReplacementCost"
      },
      {
        "source": "/ACORD/InsuranceSvcRq/HomePolicyQuoteInqRq/HomeLineBusiness/Dwell/Coverage[CoverageCd='SPOIL']/CoverageCd",
        "target": "property.requestedCoverages.personalPropertyRefrigeration"
      },
      {
        "source": "/ACORD/InsuranceSvcRq/HomePolicyQuoteInqRq/HomeLineBusiness/Dwell/Coverage[CoverageCd='APPAW']/Limit/FormatInteger",
        "target": "property.requestedCoverages.personalPropertyAtOtherResidence",
        "resolver": "#spelResolver('AtOtherResidenceCoverage', #contextForward)"
      },
      {
        "source": "/ACORD/InsuranceSvcRq/HomePolicyQuoteInqRq/HomeLineBusiness/Dwell/Coverage[CoverageCd='LAC']/Limit/FormatInteger",
        "target": "property.requestedCoverages.lossAssessment"
      },
      {
        "source": "/ACORD/InsuranceSvcRq/HomePolicyQuoteInqRq/HomeLineBusiness/Dwell/Coverage[CoverageCd='MSAG']/CoverageCd",
        "target": "property.requestedCoverages.goldBundle"
      },
      {
        "source": "/ACORD/InsuranceSvcRq/HomePolicyQuoteInqRq/HomeLineBusiness/Dwell/Coverage[CoverageCd='MSAP']/CoverageCd",
        "target": "property.requestedCoverages.platinumBundle"
      },
      {
        "source": "/ACORD/InsuranceSvcRq/HomePolicyQuoteInqRq/HomeLineBusiness/Dwell/Coverage[CoverageCd='ACCT']/CoverageCd",
        "target": "discounts.partnerAutoPolicy"
      },
      {
        "source": "/ACORD/InsuranceSvcRq/HomePolicyQuoteInqRq/HomeLineBusiness/Dwell/Coverage[CoverageCd='ACVRS']/CoverageCd",
        "target": "property.requestedCoverages.actualCashValueLossSettlement"
      },
      {
        "source": "/ACORD/InsuranceSvcRq/HomePolicyQuoteInqRq/HomeLineBusiness/PropertySchedule[PropertyClassCd='BY']/ItemValueAmt/Amt",
        "target": "property.requestedCoverages.scheduledBicycles"
      },
      {
        "source": "/ACORD/InsuranceSvcRq/HomePolicyQuoteInqRq/HomeLineBusiness/PropertySchedule[PropertyClassCd='CM']/ItemValueAmt/Amt",
        "target": "property.requestedCoverages.scheduledCameras"
      },
      {
        "source": "/ACORD/InsuranceSvcRq/HomePolicyQuoteInqRq/HomeLineBusiness/PropertySchedule[PropertyClassCd='FA']/ItemValueAmt/Amt",
        "target": "property.requestedCoverages.scheduledFineArts"
      },
      {
        "source": "/ACORD/InsuranceSvcRq/HomePolicyQuoteInqRq/HomeLineBusiness/PropertySchedule[PropertyClassCd='FABR']/ItemValueAmt/Amt",
        "target": "property.requestedCoverages.scheduledFineArtsBreakage"
      },
      {
        "source": "/ACORD/InsuranceSvcRq/HomePolicyQuoteInqRq/HomeLineBusiness/PropertySchedule[PropertyClassCd='FR']/ItemValueAmt/Amt",
        "target": "property.requestedCoverages.scheduledFurs"
      },
      {
        "source": "/ACORD/InsuranceSvcRq/HomePolicyQuoteInqRq/HomeLineBusiness/PropertySchedule[PropertyClassCd='JL']/ItemValueAmt/Amt",
        "target": "property.requestedCoverages.scheduledJewelry"
      },
      {
        "source": "/ACORD/InsuranceSvcRq/HomePolicyQuoteInqRq/HomeLineBusiness/PropertySchedule[PropertyClassCd='MI']/ItemValueAmt/Amt",
        "target": "property.requestedCoverages.scheduledMusicalInstruments"
      },
      {
        "source": "/ACORD/InsuranceSvcRq/HomePolicyQuoteInqRq/HomeLineBusiness/PropertySchedule[PropertyClassCd='SV']/ItemValueAmt/Amt",
        "target": "property.requestedCoverages.scheduledSilverWare"
      },
      {
        "source": "/ACORD/InsuranceSvcRq/HomePolicyQuoteInqRq/HomeLineBusiness/PropertySchedule[PropertyClassCd='GF']/ItemValueAmt/Amt",
        "target": "property.requestedCoverages.scheduledGolfEquipment"
      },
      {
        "source": "/ACORD/InsuranceSvcRq/HomePolicyQuoteInqRq/HomeLineBusiness/PropertySchedule[PropertyClassCd='ST']/ItemValueAmt/Amt",
        "target": "property.requestedCoverages.scheduledStamps"
      },
      {
        "source": "/ACORD/InsuranceSvcRq/HomePolicyQuoteInqRq/HomeLineBusiness/PropertySchedule[PropertyClassCd='CN']/ItemValueAmt/Amt",
        "target": "property.requestedCoverages.scheduledCoins"
      }
    ]
  }
}
