{
  "exteriorWall.*.constructionMaterial": {
    "Aluminum": "EXTERIOR_WALL.CONSTRUCTION_MATERIAL.ALUMINUM_SIDING",
    "ASB": "EXTERIOR_WALL.CONSTRUCTION_MATERIAL.ASBESTOS",
    "BarnPlank": "EXTERIOR_WALL.CONSTRUCTION_MATERIAL.BARN_PLANK_SIDING",
    "Brick": "EXTERIOR_WALL.CONSTRUCTION_MATERIAL.BRICK_ON_FRAME",
    "BrkBlk": "EXTERIOR_WALL.CONSTRUCTION_MATERIAL.BRICK_ON_FRAME",
    "BrkBlkCus": "EXTERIOR_WALL.CONSTRUCTION_MATERIAL.BRICK_ON_FRAME",
    "BlkDecPnt": "EXTERIOR_WALL.CONSTRUCTION_MATERIAL.BLOCK_PAINTED",
    "BrkSol": "EXTERIOR_WALL.CONSTRUCTION_MATERIAL.BRICK_ON_MASONRY",
    "BrkSolCus": "EXTERIOR_WALL.CONSTRUCTION_MATERIAL.BRICK_ON_MASONRY",
    "BrStone": "EXTERIOR_WALL.CONSTRUCTION_MATERIAL.BRICK_ON_MASONRY",
    "BrkVen": "EXTERIOR_WALL.CONSTRUCTION_MATERIAL.BRICK_VENEER",
    "CON": "EXTERIOR_WALL.CONSTRUCTION_MATERIAL.CONCRETE_BLOCK",
    "ConPour": "EXTERIOR_WALL.CONSTRUCTION_MATERIAL.CONCRETE_BLOCK",
    "EIFS": "EXTERIOR_WALL.CONSTRUCTION_MATERIAL.STUCCO_ON_FRAME_EIFS",
    "G": "EXTERIOR_WALL.CONSTRUCTION_MATERIAL.ADOBE",
    "L": "EXTERIOR_WALL.CONSTRUCTION_MATERIAL.LOG_SIDING",
    "MFR": "EXTERIOR_WALL.CONSTRUCTION_MATERIAL.FIRE_RESISTIVE",
    "MineralF": "EXTERIOR_WALL.CONSTRUCTION_MATERIAL.CEMENT_FIBER_SIDING",
    "Plywood": "EXTERIOR_WALL.CONSTRUCTION_MATERIAL.WOOD_SIDING",
    "R": "EXTERIOR_WALL.CONSTRUCTION_MATERIAL.FIRE_RESISTIVE",
    "SHAKE": "EXTERIOR_WALL.CONSTRUCTION_MATERIAL.WOOD_SHAKES",
    "SlumpBlock": "EXTERIOR_WALL.CONSTRUCTION_MATERIAL.STONE_AND_BLOCK",
    "SNC": "EXTERIOR_WALL.CONSTRUCTION_MATERIAL.NON_COMBUSTIBLE",
    "STO": "EXTERIOR_WALL.CONSTRUCTION_MATERIAL.STONE_ON_FRAME",
    "StoneBlk": "EXTERIOR_WALL.CONSTRUCTION_MATERIAL.STONE_AND_BLOCK",
    "StoneSolCus": "EXTERIOR_WALL.CONSTRUCTION_MATERIAL.STONE_ON_FRAME",
    "StoneBlkCus": "EXTERIOR_WALL.CONSTRUCTION_MATERIAL.STONE_AND_BLOCK",
    "SV": "EXTERIOR_WALL.CONSTRUCTION_MATERIAL.STONE_VENEER",
    "V": "EXTERIOR_WALL.CONSTRUCTION_MATERIAL.BRICK_VENEER",
    "Vinyl": "EXTERIOR_WALL.CONSTRUCTION_MATERIAL.VINYL_SIDING",
    "WinWall": "EXTERIOR_WALL.CONSTRUCTION_MATERIAL.WINDOW_WALL",
    "Wood": "EXTERIOR_WALL.CONSTRUCTION_MATERIAL.WOOD_SIDING",
    "WS": "EXTERIOR_WALL.CONSTRUCTION_MATERIAL.WOOD_SHAKES",
    "WW": "EXTERIOR_WALL.CONSTRUCTION_MATERIAL.CLAPBOARD_SIDING",
    "*": "EXTERIOR_WALL.CONSTRUCTION_MATERIAL.ASBESTOS"
  }
}