{
  "heatingSource.*.material":
  {
    "MY": "BUILT_IN_FIREPLACE.FIREPLACE_TYPE.BRICK_OR_STONE_MASONRY",
    "MetalInsert": "BUILT_IN_FIREPLACE.FIREPLACE_TYPE.METAL_INSERT",
    "PreFabMetal": "BUILT_IN_FIREPLACE.FIREPLACE_TYPE.PREFABRICATED_ZERO_CLEARANCE",
    "ZeroClearance": "BUILT_IN_FIREPLACE.FIREPLACE_TYPE.PREFABRICATED_ZERO_CLEARANCE",
    "*": "BUILT_IN_FIREPLACE.FIREPLACE_TYPE.BRICK_OR_STONE_MASONRY"
  }
}