{
  "person.*.suffix": {
    "Jr": "NAME.SUFFIX.JUNIOR",
    "Sr": "NAME.SUFFIX.SENIOR",
    "I": "NAME.SUFFIX.FIRST",
    "II": "NAME.SUFFIX.SECOND",
    "III": "NAME.SUFFIX.THIRD",
    "IV": "NAME.SUFFIX.FOURTH",
    "DDS": "NAME.SUFFIX.DDS",
    "MD": "NAME.SUFFIX.MD",
    "PHD": "NAME.SUFFIX.PHD",
    "*": "NAME.SUFFIX.JUNIOR"
  },
  "person.*.phoneType": {
    "Cell": "PHONE_TYPE.MOBILE",
    "Phone": "PHONE_TYPE.HOME",
    "Work": "PHONE_TYPE.WORK",
    "*": "PHONE_TYPE.HOME"
  },
  "primaryInsured.person.creditDisclosureFlag": {
    "Yes": "true",
    "yes": "true",
    "YES": "true",
    "NO": "false",
    "No": "false",
    "no": "false",
    "*": "false"
  }
}
