{
  "xmlToJson": {
    "Product": [
      {
        "source": "/ACORD/InsuranceSvcRq/PersAutoPolicyQuoteInqRq/PersPolicy/LOBCd",
        "target": "product.lob"
      },
      {
        "source": "/ACORD/SignonRq/ClientApp/Name",
        "target": "product.appName"
      },
      {
        "source": "/ACORD/InsuranceSvcRq/HomePolicyQuoteInqRq/HomeLineBusiness/LOBCd",
        "target": "product.lob"
      }
    ]
  }
}
