[
  {
    "source": "domain.geo.id",
    "target": "geo.key"
  },
  {
    "source": "domain.credit.id",
    "target": "credit.key"
  },
  {
    "source": "domain.autoIncidents.id",
    "target": "autoIncidents.key"
  },
  {
    "source": "domain.autoHistory.id",
    "target": "autoHistory.key"
  },
  {
    "source": "domain.geo.async",
    "target": "geo.async"
  },
  {
    "source": "domain.credit.async",
    "target": "credit.async"
  },
  {
    "source": "domain.autoHistory.async",
    "target": "autoHistory.async"
  },
  {
    "source": "domain.autoIncidents.async",
    "target": "autoIncidents.async"
  },
  {
    "source": "invocationId",
    "target": "invocationId"
  }
]