[
  {
    "source": "domain.geo.id",
    "target": "geo.key"
  },
  {
    "source": "domain.credit.id",
    "target": "credit.key"
  },
  {
    "source": "domain.propertyLosses.id",
    "target": "propertyLoss.key"
  },
  {
    "source": "domain.autoLosses.id",
    "target": "autoLoss.key"
  },
  {
    "source": "domain.geo.async",
    "target": "geo.async"
  },
  {
    "source": "domain.credit.async",
    "target": "credit.async"
  },
  {
    "source": "domain.propertyLosses.async",
    "target": "propertyLoss.async"
  },
  {
    "source": "domain.autoLosses.async",
    "target": "autoLoss.async"
  },
  {
    "source": "domain.roofScore.async",
    "target": "roofScore.async"
  },
  {
    "source": "invocationId",
    "target": "invocationId"
  }
]