[
  {
    "source": "",
    "target": "requestInformation.requestTimestamp"
  },
  {
    "source": "",
    "target": "requestInformation.systemId"
  },
  {
    "source": "",
    "target": "requestInformation.userId"
  }
]