[
  {
    "when": "!{'SP','BA'}.contains(#inputs.get('property.policyType'))",
    "source": "property.requestedCoverages.scheduledCameras",
    "target": "policy.lobDataDTO.offerings.[0].coverages.schedules[patternName='EH_ScheduledPersonalPropertyItem'].scheduleItems[ItemData.EH_ScheduledPersonalProperty_ItemType.TypeCodeValue='cameras' && ItemData.EH_ScheduledPersonalProperty_ItemType.typeCodeAliasValue='Cameras' && ItemData.EH_ScheduledPersonalProperty_ItemDescription.StringValue='Cameras' && ItemData.EH_ScheduledPersonalProperty_ItemArticle.StringValue='test'].ItemData.EH_ScheduledPersonalProperty_ItemValue.IntegerValue"
  },
  {
    "when": "!{'SP','BA'}.contains(#inputs.get('property.policyType'))",
    "source": "property.requestedCoverages.scheduledCameras",
    "target": "policy.lobDataDTO.offerings.[0].coverages.schedules[patternName='EH_ScheduledPersonalPropertyItem'].scheduleItems[ItemData.EH_ScheduledPersonalProperty_ItemType.TypeCodeValue='cameras' && ItemData.EH_ScheduledPersonalProperty_ItemType.typeCodeAliasValue='Cameras' && ItemData.EH_ScheduledPersonalProperty_ItemDescription.StringValue='Cameras' && ItemData.EH_ScheduledPersonalProperty_ItemArticle.StringValue='test'].ItemNumber",
    "read": "T(java.lang.Integer).valueOf(#indexedTarget.substring(#indexedTarget.lastIndexOf('[')+1,#indexedTarget.lastIndexOf(']')))+1"
  },
  {
    "when": "!{'SP','BA'}.contains(#inputs.get('property.policyType'))",
    "source": "property.requestedCoverages.scheduledCoins",
    "target": "policy.lobDataDTO.offerings.[0].coverages.schedules[patternName='EH_ScheduledPersonalPropertyItem'].scheduleItems[ItemData.EH_ScheduledPersonalProperty_ItemType.TypeCodeValue='coincollections' && ItemData.EH_ScheduledPersonalProperty_ItemType.typeCodeAliasValue='CoinCollections' && ItemData.EH_ScheduledPersonalProperty_ItemDescription.StringValue='CoinCollections' && ItemData.EH_ScheduledPersonalProperty_ItemArticle.StringValue='test'].ItemData.EH_ScheduledPersonalProperty_ItemValue.IntegerValue"
  },
  {
    "when": "!{'SP','BA'}.contains(#inputs.get('property.policyType'))",
    "source": "property.requestedCoverages.scheduledCoins",
    "target": "policy.lobDataDTO.offerings.[0].coverages.schedules[patternName='EH_ScheduledPersonalPropertyItem'].scheduleItems[ItemData.EH_ScheduledPersonalProperty_ItemType.TypeCodeValue='coincollections' && ItemData.EH_ScheduledPersonalProperty_ItemType.typeCodeAliasValue='CoinCollections' && ItemData.EH_ScheduledPersonalProperty_ItemDescription.StringValue='CoinCollections' && ItemData.EH_ScheduledPersonalProperty_ItemArticle.StringValue='test'].ItemNumber",
    "read": "T(java.lang.Integer).valueOf(#indexedTarget.substring(#indexedTarget.lastIndexOf('[')+1,#indexedTarget.lastIndexOf(']')))+1"
  },
  {
    "when": "!{'SP','BA'}.contains(#inputs.get('property.policyType'))",
    "source": "property.requestedCoverages.scheduledBicycles",
    "target": "policy.lobDataDTO.offerings.[0].coverages.schedules[patternName='EH_ScheduledPersonalPropertyItem'].scheduleItems[ItemData.EH_ScheduledPersonalProperty_ItemType.TypeCodeValue='bicycles' && ItemData.EH_ScheduledPersonalProperty_ItemType.typeCodeAliasValue='Bicycles' && ItemData.EH_ScheduledPersonalProperty_ItemDescription.StringValue='Bicycles' && ItemData.EH_ScheduledPersonalProperty_ItemArticle.StringValue='test'].ItemData.EH_ScheduledPersonalProperty_ItemValue.IntegerValue"
  },
  {
    "when": "!{'SP','BA'}.contains(#inputs.get('property.policyType'))",
    "source": "property.requestedCoverages.scheduledBicycles",
    "target": "policy.lobDataDTO.offerings.[0].coverages.schedules[patternName='EH_ScheduledPersonalPropertyItem'].scheduleItems[ItemData.EH_ScheduledPersonalProperty_ItemType.TypeCodeValue='bicycles' && ItemData.EH_ScheduledPersonalProperty_ItemType.typeCodeAliasValue='Bicycles' && ItemData.EH_ScheduledPersonalProperty_ItemDescription.StringValue='Bicycles' && ItemData.EH_ScheduledPersonalProperty_ItemArticle.StringValue='test'].ItemNumber",
    "read": "T(java.lang.Integer).valueOf(#indexedTarget.substring(#indexedTarget.lastIndexOf('[')+1,#indexedTarget.lastIndexOf(']')))+1"
  },
  {
    "when": "!{'SP','BA'}.contains(#inputs.get('property.policyType'))",
    "source": "property.requestedCoverages.scheduledFineArts",
    "target": "policy.lobDataDTO.offerings.[0].coverages.schedules[patternName='EH_ScheduledPersonalPropertyItem'].scheduleItems[ItemData.EH_ScheduledPersonalProperty_ItemType.TypeCodeValue='finearts' && ItemData.EH_ScheduledPersonalProperty_ItemType.typeCodeAliasValue='FineArts' && ItemData.EH_ScheduledPersonalProperty_ItemDescription.StringValue='FineArts' && ItemData.EH_ScheduledPersonalProperty_ItemArticle.StringValue='test'].ItemData.EH_ScheduledPersonalProperty_ItemValue.IntegerValue"
  },
  {
    "when": "!{'SP','BA'}.contains(#inputs.get('property.policyType'))",
    "source": "property.requestedCoverages.scheduledFineArts",
    "target": "policy.lobDataDTO.offerings.[0].coverages.schedules[patternName='EH_ScheduledPersonalPropertyItem'].scheduleItems[ItemData.EH_ScheduledPersonalProperty_ItemType.TypeCodeValue='finearts' && ItemData.EH_ScheduledPersonalProperty_ItemType.typeCodeAliasValue='FineArts' && ItemData.EH_ScheduledPersonalProperty_ItemDescription.StringValue='FineArts' && ItemData.EH_ScheduledPersonalProperty_ItemArticle.StringValue='test'].ItemNumber",
    "read": "T(java.lang.Integer).valueOf(#indexedTarget.substring(#indexedTarget.lastIndexOf('[')+1,#indexedTarget.lastIndexOf(']')))+1"
  },
  {
    "when": "!{'SP','BA'}.contains(#inputs.get('property.policyType'))",
    "source": "property.requestedCoverages.scheduledFineArtsBreakage",
    "target": "policy.lobDataDTO.offerings.[0].coverages.schedules[patternName='EH_ScheduledPersonalPropertyItem'].scheduleItems[ItemData.EH_ScheduledPersonalProperty_ItemType.TypeCodeValue='finearts' && ItemData.EH_ScheduledPersonalProperty_ItemType.typeCodeAliasValue='FineArts' && ItemData.EH_ScheduledPersonalProperty_ItemDescription.StringValue='FineArts(Includes Breakage)' && ItemData.EH_ScheduledPersonalProperty_ItemArticle.StringValue='test'].ItemData.EH_ScheduledPersonalProperty_ItemValue.IntegerValue"
  },
  {
    "when": "!{'SP','BA'}.contains(#inputs.get('property.policyType'))",
    "source": "property.requestedCoverages.scheduledFineArtsBreakage",
    "target": "policy.lobDataDTO.offerings.[0].coverages.schedules[patternName='EH_ScheduledPersonalPropertyItem'].scheduleItems[ItemData.EH_ScheduledPersonalProperty_ItemType.TypeCodeValue='finearts' && ItemData.EH_ScheduledPersonalProperty_ItemType.typeCodeAliasValue='FineArts' && ItemData.EH_ScheduledPersonalProperty_ItemDescription.StringValue='FineArts(Includes Breakage)' && ItemData.EH_ScheduledPersonalProperty_ItemArticle.StringValue='test'].ItemNumber",
    "read": "T(java.lang.Integer).valueOf(#indexedTarget.substring(#indexedTarget.lastIndexOf('[')+1,#indexedTarget.lastIndexOf(']')))+1"
  },
  {
    "when": "!{'SP','BA'}.contains(#inputs.get('property.policyType'))",
    "source": "property.requestedCoverages.scheduledFurs",
    "target": "policy.lobDataDTO.offerings.[0].coverages.schedules[patternName='EH_ScheduledPersonalPropertyItem'].scheduleItems[ItemData.EH_ScheduledPersonalProperty_ItemType.TypeCodeValue='furs' && ItemData.EH_ScheduledPersonalProperty_ItemType.typeCodeAliasValue='Furs' && ItemData.EH_ScheduledPersonalProperty_ItemDescription.StringValue='Furs' && ItemData.EH_ScheduledPersonalProperty_ItemArticle.StringValue='test'].ItemData.EH_ScheduledPersonalProperty_ItemValue.IntegerValue"
  },
  {
    "when": "!{'SP','BA'}.contains(#inputs.get('property.policyType'))",
    "source": "property.requestedCoverages.scheduledFurs",
    "target": "policy.lobDataDTO.offerings.[0].coverages.schedules[patternName='EH_ScheduledPersonalPropertyItem'].scheduleItems[ItemData.EH_ScheduledPersonalProperty_ItemType.TypeCodeValue='furs' && ItemData.EH_ScheduledPersonalProperty_ItemType.typeCodeAliasValue='Furs' && ItemData.EH_ScheduledPersonalProperty_ItemDescription.StringValue='Furs' && ItemData.EH_ScheduledPersonalProperty_ItemArticle.StringValue='test'].ItemNumber",
    "read": "T(java.lang.Integer).valueOf(#indexedTarget.substring(#indexedTarget.lastIndexOf('[')+1,#indexedTarget.lastIndexOf(']')))+1"
  },
  {
    "when": "!{'SP','BA'}.contains(#inputs.get('property.policyType'))",
    "source": "property.requestedCoverages.scheduledJewelry",
    "target": "policy.lobDataDTO.offerings.[0].coverages.schedules[patternName='EH_ScheduledPersonalPropertyItem'].scheduleItems[ItemData.EH_ScheduledPersonalProperty_ItemType.TypeCodeValue='jewelrywatches' && ItemData.EH_ScheduledPersonalProperty_ItemType.typeCodeAliasValue='JewelryWatches' && ItemData.EH_ScheduledPersonalProperty_ItemDescription.StringValue='JewelryWatches' && ItemData.EH_ScheduledPersonalProperty_ItemArticle.StringValue='test'].ItemData.EH_ScheduledPersonalProperty_ItemValue.IntegerValue"
  },
  {
    "when": "!{'SP','BA'}.contains(#inputs.get('property.policyType'))",
    "source": "property.requestedCoverages.scheduledJewelry",
    "target": "policy.lobDataDTO.offerings.[0].coverages.schedules[patternName='EH_ScheduledPersonalPropertyItem'].scheduleItems[ItemData.EH_ScheduledPersonalProperty_ItemType.TypeCodeValue='jewelrywatches' && ItemData.EH_ScheduledPersonalProperty_ItemType.typeCodeAliasValue='JewelryWatches' && ItemData.EH_ScheduledPersonalProperty_ItemDescription.StringValue='JewelryWatches' && ItemData.EH_ScheduledPersonalProperty_ItemArticle.StringValue='test'].ItemNumber",
    "read": "T(java.lang.Integer).valueOf(#indexedTarget.substring(#indexedTarget.lastIndexOf('[')+1,#indexedTarget.lastIndexOf(']')))+1"
  },
  {
    "when": "!{'SP','BA'}.contains(#inputs.get('property.policyType'))",
    "source": "property.requestedCoverages.scheduledMusicalInstruments",
    "target": "policy.lobDataDTO.offerings.[0].coverages.schedules[patternName='EH_ScheduledPersonalPropertyItem'].scheduleItems[ItemData.EH_ScheduledPersonalProperty_ItemType.TypeCodeValue='musicalinstruments' && ItemData.EH_ScheduledPersonalProperty_ItemType.typeCodeAliasValue='MusicalInstruments' && ItemData.EH_ScheduledPersonalProperty_ItemDescription.StringValue='MusicalInstruments' && ItemData.EH_ScheduledPersonalProperty_ItemArticle.StringValue='test'].ItemData.EH_ScheduledPersonalProperty_ItemValue.IntegerValue"
  },
  {
    "when": "!{'SP','BA'}.contains(#inputs.get('property.policyType'))",
    "source": "property.requestedCoverages.scheduledMusicalInstruments",
    "target": "policy.lobDataDTO.offerings.[0].coverages.schedules[patternName='EH_ScheduledPersonalPropertyItem'].scheduleItems[ItemData.EH_ScheduledPersonalProperty_ItemType.TypeCodeValue='musicalinstruments' && ItemData.EH_ScheduledPersonalProperty_ItemType.typeCodeAliasValue='MusicalInstruments' && ItemData.EH_ScheduledPersonalProperty_ItemDescription.StringValue='MusicalInstruments' && ItemData.EH_ScheduledPersonalProperty_ItemArticle.StringValue='test'].ItemNumber",
    "read": "T(java.lang.Integer).valueOf(#indexedTarget.substring(#indexedTarget.lastIndexOf('[')+1,#indexedTarget.lastIndexOf(']')))+1"
  },
  {
    "when": "!{'SP','BA'}.contains(#inputs.get('property.policyType'))",
    "source": "property.requestedCoverages.scheduledSilverWare",
    "target": "policy.lobDataDTO.offerings.[0].coverages.schedules[patternName='EH_ScheduledPersonalPropertyItem'].scheduleItems[ItemData.EH_ScheduledPersonalProperty_ItemType.TypeCodeValue='silverware' && ItemData.EH_ScheduledPersonalProperty_ItemType.typeCodeAliasValue='Silverware' && ItemData.EH_ScheduledPersonalProperty_ItemDescription.StringValue='Silverware' && ItemData.EH_ScheduledPersonalProperty_ItemArticle.StringValue='test'].ItemData.EH_ScheduledPersonalProperty_ItemValue.IntegerValue"
  },
  {
    "when": "!{'SP','BA'}.contains(#inputs.get('property.policyType'))",
    "source": "property.requestedCoverages.scheduledSilverWare",
    "target": "policy.lobDataDTO.offerings.[0].coverages.schedules[patternName='EH_ScheduledPersonalPropertyItem'].scheduleItems[ItemData.EH_ScheduledPersonalProperty_ItemType.TypeCodeValue='silverware' && ItemData.EH_ScheduledPersonalProperty_ItemType.typeCodeAliasValue='Silverware' && ItemData.EH_ScheduledPersonalProperty_ItemDescription.StringValue='Silverware' && ItemData.EH_ScheduledPersonalProperty_ItemArticle.StringValue='test'].ItemNumber",
    "read": "T(java.lang.Integer).valueOf(#indexedTarget.substring(#indexedTarget.lastIndexOf('[')+1,#indexedTarget.lastIndexOf(']')))+1"
  },
  {
    "when": "!{'SP','BA'}.contains(#inputs.get('property.policyType'))",
    "source": "property.requestedCoverages.scheduledGolfEquipment",
    "target": "policy.lobDataDTO.offerings.[0].coverages.schedules[patternName='EH_ScheduledPersonalPropertyItem'].scheduleItems[ItemData.EH_ScheduledPersonalProperty_ItemType.TypeCodeValue='golfequipment' && ItemData.EH_ScheduledPersonalProperty_ItemType.typeCodeAliasValue='GolfEquipment' && ItemData.EH_ScheduledPersonalProperty_ItemDescription.StringValue='GolfEquipment' && ItemData.EH_ScheduledPersonalProperty_ItemArticle.StringValue='test'].ItemData.EH_ScheduledPersonalProperty_ItemValue.IntegerValue"
  },
  {
    "when": "!{'SP','BA'}.contains(#inputs.get('property.policyType'))",
    "source": "property.requestedCoverages.scheduledGolfEquipment",
    "target": "policy.lobDataDTO.offerings.[0].coverages.schedules[patternName='EH_ScheduledPersonalPropertyItem'].scheduleItems[ItemData.EH_ScheduledPersonalProperty_ItemType.TypeCodeValue='golfequipment' && ItemData.EH_ScheduledPersonalProperty_ItemType.typeCodeAliasValue='GolfEquipment' && ItemData.EH_ScheduledPersonalProperty_ItemDescription.StringValue='GolfEquipment' && ItemData.EH_ScheduledPersonalProperty_ItemArticle.StringValue='test'].ItemNumber",
    "read": "T(java.lang.Integer).valueOf(#indexedTarget.substring(#indexedTarget.lastIndexOf('[')+1,#indexedTarget.lastIndexOf(']')))+1"
  },
  {
    "when": "!{'SP','BA'}.contains(#inputs.get('property.policyType'))",
    "source": "property.requestedCoverages.scheduledStamps",
    "target": "policy.lobDataDTO.offerings.[0].coverages.schedules[patternName='EH_ScheduledPersonalPropertyItem'].scheduleItems[ItemData.EH_ScheduledPersonalProperty_ItemType.TypeCodeValue='stampcollections' && ItemData.EH_ScheduledPersonalProperty_ItemType.typeCodeAliasValue='StampCollections' && ItemData.EH_ScheduledPersonalProperty_ItemDescription.StringValue='PostageStamps' && ItemData.EH_ScheduledPersonalProperty_ItemArticle.StringValue='test'].ItemData.EH_ScheduledPersonalProperty_ItemValue.IntegerValue"
  },
  {
    "when": "!{'SP','BA'}.contains(#inputs.get('property.policyType'))",
    "source": "property.requestedCoverages.scheduledStamps",
    "target": "policy.lobDataDTO.offerings.[0].coverages.schedules[patternName='EH_ScheduledPersonalPropertyItem'].scheduleItems[ItemData.EH_ScheduledPersonalProperty_ItemType.TypeCodeValue='stampcollections' && ItemData.EH_ScheduledPersonalProperty_ItemType.typeCodeAliasValue='StampCollections' && ItemData.EH_ScheduledPersonalProperty_ItemDescription.StringValue='PostageStamps' && ItemData.EH_ScheduledPersonalProperty_ItemArticle.StringValue='test'].ItemNumber",
    "read": "T(java.lang.Integer).valueOf(#indexedTarget.substring(#indexedTarget.lastIndexOf('[')+1,#indexedTarget.lastIndexOf(']')))+1"
  }
]